{
  "images" : [
    {
      "idiom" : "universal",
      "filename" : "0642ca49-6cef-99db-0162-4f4b101a5aca.jpg",
      "scale" : "1x"
    },
    {
      "idiom" : "universal",
      "scale" : "2x"
    },
    {
      "idiom" : "universal",
      "scale" : "3x"
    }
  ],
  "info" : {
    "version" : 1,
    "author" : "xcode"
  }
}